<?xml version="1.0" encoding="UTF-8"?>
<testsuite xmlns:xsi="http://www.w3.org/2001/XMLSchema-instance" xsi:noNamespaceSchemaLocation="https://maven.apache.org/surefire/maven-surefire-plugin/xsd/surefire-test-report.xsd" name="com.example.demo.saludoControllerTest" time="0.141" tests="2" errors="1" skipped="0" failures="0">
  <properties>
    <property name="java.specification.version" value="15"/>
    <property name="sun.cpu.isalist" value="amd64"/>
    <property name="sun.jnu.encoding" value="Cp1252"/>
    <property name="java.class.path" value="C:\PracticionerBackend\demo\target\test-classes;C:\PracticionerBackend\demo\target\classes;C:\Users\Acer\.m2\practicioner-colombia\org\springframework\boot\spring-boot-starter-web\2.4.4\spring-boot-starter-web-2.4.4.jar;C:\Users\Acer\.m2\practicioner-colombia\org\springframework\boot\spring-boot-starter\2.4.4\spring-boot-starter-2.4.4.jar;C:\Users\Acer\.m2\practicioner-colombia\org\springframework\boot\spring-boot\2.4.4\spring-boot-2.4.4.jar;C:\Users\Acer\.m2\practicioner-colombia\org\springframework\boot\spring-boot-autoconfigure\2.4.4\spring-boot-autoconfigure-2.4.4.jar;C:\Users\Acer\.m2\practicioner-colombia\org\springframework\boot\spring-boot-starter-logging\2.4.4\spring-boot-starter-logging-2.4.4.jar;C:\Users\Acer\.m2\practicioner-colombia\ch\qos\logback\logback-classic\1.2.3\logback-classic-1.2.3.jar;C:\Users\Acer\.m2\practicioner-colombia\ch\qos\logback\logback-core\1.2.3\logback-core-1.2.3.jar;C:\Users\Acer\.m2\practicioner-colombia\org\apache\logging\log4j\log4j-to-slf4j\2.13.3\log4j-to-slf4j-2.13.3.jar;C:\Users\Acer\.m2\practicioner-colombia\org\apache\logging\log4j\log4j-api\2.13.3\log4j-api-2.13.3.jar;C:\Users\Acer\.m2\practicioner-colombia\org\slf4j\jul-to-slf4j\1.7.30\jul-to-slf4j-1.7.30.jar;C:\Users\Acer\.m2\practicioner-colombia\jakarta\annotation\jakarta.annotation-api\1.3.5\jakarta.annotation-api-1.3.5.jar;C:\Users\Acer\.m2\practicioner-colombia\org\yaml\snakeyaml\1.27\snakeyaml-1.27.jar;C:\Users\Acer\.m2\practicioner-colombia\org\springframework\boot\spring-boot-starter-json\2.4.4\spring-boot-starter-json-2.4.4.jar;C:\Users\Acer\.m2\practicioner-colombia\com\fasterxml\jackson\core\jackson-databind\2.11.4\jackson-databind-2.11.4.jar;C:\Users\Acer\.m2\practicioner-colombia\com\fasterxml\jackson\core\jackson-annotations\2.11.4\jackson-annotations-2.11.4.jar;C:\Users\Acer\.m2\practicioner-colombia\com\fasterxml\jackson\core\jackson-core\2.11.4\jackson-core-2.11.4.jar;C:\Users\Acer\.m2\practicioner-colombia\com\fasterxml\jackson\datatype\jackson-datatype-jdk8\2.11.4\jackson-datatype-jdk8-2.11.4.jar;C:\Users\Acer\.m2\practicioner-colombia\com\fasterxml\jackson\datatype\jackson-datatype-jsr310\2.11.4\jackson-datatype-jsr310-2.11.4.jar;C:\Users\Acer\.m2\practicioner-colombia\com\fasterxml\jackson\module\jackson-module-parameter-names\2.11.4\jackson-module-parameter-names-2.11.4.jar;C:\Users\Acer\.m2\practicioner-colombia\org\springframework\boot\spring-boot-starter-tomcat\2.4.4\spring-boot-starter-tomcat-2.4.4.jar;C:\Users\Acer\.m2\practicioner-colombia\org\apache\tomcat\embed\tomcat-embed-core\9.0.44\tomcat-embed-core-9.0.44.jar;C:\Users\Acer\.m2\practicioner-colombia\org\glassfish\jakarta.el\3.0.3\jakarta.el-3.0.3.jar;C:\Users\Acer\.m2\practicioner-colombia\org\apache\tomcat\embed\tomcat-embed-websocket\9.0.44\tomcat-embed-websocket-9.0.44.jar;C:\Users\Acer\.m2\practicioner-colombia\org\springframework\spring-web\5.3.5\spring-web-5.3.5.jar;C:\Users\Acer\.m2\practicioner-colombia\org\springframework\spring-beans\5.3.5\spring-beans-5.3.5.jar;C:\Users\Acer\.m2\practicioner-colombia\org\springframework\spring-webmvc\5.3.5\spring-webmvc-5.3.5.jar;C:\Users\Acer\.m2\practicioner-colombia\org\springframework\spring-aop\5.3.5\spring-aop-5.3.5.jar;C:\Users\Acer\.m2\practicioner-colombia\org\springframework\spring-context\5.3.5\spring-context-5.3.5.jar;C:\Users\Acer\.m2\practicioner-colombia\org\springframework\spring-expression\5.3.5\spring-expression-5.3.5.jar;C:\Users\Acer\.m2\practicioner-colombia\org\springframework\boot\spring-boot-starter-test\2.4.4\spring-boot-starter-test-2.4.4.jar;C:\Users\Acer\.m2\practicioner-colombia\org\springframework\boot\spring-boot-test\2.4.4\spring-boot-test-2.4.4.jar;C:\Users\Acer\.m2\practicioner-colombia\org\springframework\boot\spring-boot-test-autoconfigure\2.4.4\spring-boot-test-autoconfigure-2.4.4.jar;C:\Users\Acer\.m2\practicioner-colombia\com\jayway\jsonpath\json-path\2.4.0\json-path-2.4.0.jar;C:\Users\Acer\.m2\practicioner-colombia\net\minidev\json-smart\2.3\json-smart-2.3.jar;C:\Users\Acer\.m2\practicioner-colombia\net\minidev\accessors-smart\1.2\accessors-smart-1.2.jar;C:\Users\Acer\.m2\practicioner-colombia\org\ow2\asm\asm\5.0.4\asm-5.0.4.jar;C:\Users\Acer\.m2\practicioner-colombia\org\slf4j\slf4j-api\1.7.30\slf4j-api-1.7.30.jar;C:\Users\Acer\.m2\practicioner-colombia\jakarta\xml\bind\jakarta.xml.bind-api\2.3.3\jakarta.xml.bind-api-2.3.3.jar;C:\Users\Acer\.m2\practicioner-colombia\jakarta\activation\jakarta.activation-api\1.2.2\jakarta.activation-api-1.2.2.jar;C:\Users\Acer\.m2\practicioner-colombia\org\assertj\assertj-core\3.18.1\assertj-core-3.18.1.jar;C:\Users\Acer\.m2\practicioner-colombia\org\hamcrest\hamcrest\2.2\hamcrest-2.2.jar;C:\Users\Acer\.m2\practicioner-colombia\org\junit\jupiter\junit-jupiter\5.7.1\junit-jupiter-5.7.1.jar;C:\Users\Acer\.m2\practicioner-colombia\org\junit\jupiter\junit-jupiter-api\5.7.1\junit-jupiter-api-5.7.1.jar;C:\Users\Acer\.m2\practicioner-colombia\org\apiguardian\apiguardian-api\1.1.0\apiguardian-api-1.1.0.jar;C:\Users\Acer\.m2\practicioner-colombia\org\opentest4j\opentest4j\1.2.0\opentest4j-1.2.0.jar;C:\Users\Acer\.m2\practicioner-colombia\org\junit\platform\junit-platform-commons\1.7.1\junit-platform-commons-1.7.1.jar;C:\Users\Acer\.m2\practicioner-colombia\org\junit\jupiter\junit-jupiter-params\5.7.1\junit-jupiter-params-5.7.1.jar;C:\Users\Acer\.m2\practicioner-colombia\org\junit\jupiter\junit-jupiter-engine\5.7.1\junit-jupiter-engine-5.7.1.jar;C:\Users\Acer\.m2\practicioner-colombia\org\junit\platform\junit-platform-engine\1.7.1\junit-platform-engine-1.7.1.jar;C:\Users\Acer\.m2\practicioner-colombia\org\mockito\mockito-core\3.6.28\mockito-core-3.6.28.jar;C:\Users\Acer\.m2\practicioner-colombia\net\bytebuddy\byte-buddy\1.10.22\byte-buddy-1.10.22.jar;C:\Users\Acer\.m2\practicioner-colombia\net\bytebuddy\byte-buddy-agent\1.10.22\byte-buddy-agent-1.10.22.jar;C:\Users\Acer\.m2\practicioner-colombia\org\objenesis\objenesis\3.1\objenesis-3.1.jar;C:\Users\Acer\.m2\practicioner-colombia\org\mockito\mockito-junit-jupiter\3.6.28\mockito-junit-jupiter-3.6.28.jar;C:\Users\Acer\.m2\practicioner-colombia\org\skyscreamer\jsonassert\1.5.0\jsonassert-1.5.0.jar;C:\Users\Acer\.m2\practicioner-colombia\com\vaadin\external\google\android-json\0.0.20131108.vaadin1\android-json-0.0.20131108.vaadin1.jar;C:\Users\Acer\.m2\practicioner-colombia\org\springframework\spring-core\5.3.5\spring-core-5.3.5.jar;C:\Users\Acer\.m2\practicioner-colombia\org\springframework\spring-jcl\5.3.5\spring-jcl-5.3.5.jar;C:\Users\Acer\.m2\practicioner-colombia\org\springframework\spring-test\5.3.5\spring-test-5.3.5.jar;C:\Users\Acer\.m2\practicioner-colombia\org\xmlunit\xmlunit-core\2.7.0\xmlunit-core-2.7.0.jar;C:\Users\Acer\.m2\practicioner-colombia\net\bbva\biblioCalculus\1.0-SNAPSHOT\biblioCalculus-1.0-SNAPSHOT.jar;C:\Users\Acer\.m2\practicioner-colombia\org\springframework\boot\spring-boot-starter-data-mongodb\2.4.4\spring-boot-starter-data-mongodb-2.4.4.jar;C:\Users\Acer\.m2\practicioner-colombia\org\mongodb\mongodb-driver-sync\4.1.2\mongodb-driver-sync-4.1.2.jar;C:\Users\Acer\.m2\practicioner-colombia\org\mongodb\bson\4.1.2\bson-4.1.2.jar;C:\Users\Acer\.m2\practicioner-colombia\org\mongodb\mongodb-driver-core\4.1.2\mongodb-driver-core-4.1.2.jar;C:\Users\Acer\.m2\practicioner-colombia\org\springframework\data\spring-data-mongodb\3.1.6\spring-data-mongodb-3.1.6.jar;C:\Users\Acer\.m2\practicioner-colombia\org\springframework\spring-tx\5.3.5\spring-tx-5.3.5.jar;C:\Users\Acer\.m2\practicioner-colombia\org\springframework\data\spring-data-commons\2.4.6\spring-data-commons-2.4.6.jar;"/>
    <property name="java.vm.vendor" value="Oracle Corporation"/>
    <property name="sun.arch.data.model" value="64"/>
    <property name="user.variant" value=""/>
    <property name="java.vendor.url" value="https://java.oracle.com/"/>
    <property name="user.timezone" value="America/Bogota"/>
    <property name="os.name" value="Windows 10"/>
    <property name="java.vm.specification.version" value="15"/>
    <property name="sun.java.launcher" value="SUN_STANDARD"/>
    <property name="user.country" value="CO"/>
    <property name="sun.boot.library.path" value="C:\Program Files\Java\OpenJDK\jdk-15\bin"/>
    <property name="sun.java.command" value="C:\Users\Acer\AppData\Local\Temp\surefire10492231022345466063\surefirebooter1135661214585506870.jar C:\Users\Acer\AppData\Local\Temp\surefire10492231022345466063 2021-04-15T10-24-17_115-jvmRun1 surefire10187949598625839312tmp surefire_018048665605729707446tmp"/>
    <property name="jdk.debug" value="release"/>
    <property name="surefire.test.class.path" value="C:\PracticionerBackend\demo\target\test-classes;C:\PracticionerBackend\demo\target\classes;C:\Users\Acer\.m2\practicioner-colombia\org\springframework\boot\spring-boot-starter-web\2.4.4\spring-boot-starter-web-2.4.4.jar;C:\Users\Acer\.m2\practicioner-colombia\org\springframework\boot\spring-boot-starter\2.4.4\spring-boot-starter-2.4.4.jar;C:\Users\Acer\.m2\practicioner-colombia\org\springframework\boot\spring-boot\2.4.4\spring-boot-2.4.4.jar;C:\Users\Acer\.m2\practicioner-colombia\org\springframework\boot\spring-boot-autoconfigure\2.4.4\spring-boot-autoconfigure-2.4.4.jar;C:\Users\Acer\.m2\practicioner-colombia\org\springframework\boot\spring-boot-starter-logging\2.4.4\spring-boot-starter-logging-2.4.4.jar;C:\Users\Acer\.m2\practicioner-colombia\ch\qos\logback\logback-classic\1.2.3\logback-classic-1.2.3.jar;C:\Users\Acer\.m2\practicioner-colombia\ch\qos\logback\logback-core\1.2.3\logback-core-1.2.3.jar;C:\Users\Acer\.m2\practicioner-colombia\org\apache\logging\log4j\log4j-to-slf4j\2.13.3\log4j-to-slf4j-2.13.3.jar;C:\Users\Acer\.m2\practicioner-colombia\org\apache\logging\log4j\log4j-api\2.13.3\log4j-api-2.13.3.jar;C:\Users\Acer\.m2\practicioner-colombia\org\slf4j\jul-to-slf4j\1.7.30\jul-to-slf4j-1.7.30.jar;C:\Users\Acer\.m2\practicioner-colombia\jakarta\annotation\jakarta.annotation-api\1.3.5\jakarta.annotation-api-1.3.5.jar;C:\Users\Acer\.m2\practicioner-colombia\org\yaml\snakeyaml\1.27\snakeyaml-1.27.jar;C:\Users\Acer\.m2\practicioner-colombia\org\springframework\boot\spring-boot-starter-json\2.4.4\spring-boot-starter-json-2.4.4.jar;C:\Users\Acer\.m2\practicioner-colombia\com\fasterxml\jackson\core\jackson-databind\2.11.4\jackson-databind-2.11.4.jar;C:\Users\Acer\.m2\practicioner-colombia\com\fasterxml\jackson\core\jackson-annotations\2.11.4\jackson-annotations-2.11.4.jar;C:\Users\Acer\.m2\practicioner-colombia\com\fasterxml\jackson\core\jackson-core\2.11.4\jackson-core-2.11.4.jar;C:\Users\Acer\.m2\practicioner-colombia\com\fasterxml\jackson\datatype\jackson-datatype-jdk8\2.11.4\jackson-datatype-jdk8-2.11.4.jar;C:\Users\Acer\.m2\practicioner-colombia\com\fasterxml\jackson\datatype\jackson-datatype-jsr310\2.11.4\jackson-datatype-jsr310-2.11.4.jar;C:\Users\Acer\.m2\practicioner-colombia\com\fasterxml\jackson\module\jackson-module-parameter-names\2.11.4\jackson-module-parameter-names-2.11.4.jar;C:\Users\Acer\.m2\practicioner-colombia\org\springframework\boot\spring-boot-starter-tomcat\2.4.4\spring-boot-starter-tomcat-2.4.4.jar;C:\Users\Acer\.m2\practicioner-colombia\org\apache\tomcat\embed\tomcat-embed-core\9.0.44\tomcat-embed-core-9.0.44.jar;C:\Users\Acer\.m2\practicioner-colombia\org\glassfish\jakarta.el\3.0.3\jakarta.el-3.0.3.jar;C:\Users\Acer\.m2\practicioner-colombia\org\apache\tomcat\embed\tomcat-embed-websocket\9.0.44\tomcat-embed-websocket-9.0.44.jar;C:\Users\Acer\.m2\practicioner-colombia\org\springframework\spring-web\5.3.5\spring-web-5.3.5.jar;C:\Users\Acer\.m2\practicioner-colombia\org\springframework\spring-beans\5.3.5\spring-beans-5.3.5.jar;C:\Users\Acer\.m2\practicioner-colombia\org\springframework\spring-webmvc\5.3.5\spring-webmvc-5.3.5.jar;C:\Users\Acer\.m2\practicioner-colombia\org\springframework\spring-aop\5.3.5\spring-aop-5.3.5.jar;C:\Users\Acer\.m2\practicioner-colombia\org\springframework\spring-context\5.3.5\spring-context-5.3.5.jar;C:\Users\Acer\.m2\practicioner-colombia\org\springframework\spring-expression\5.3.5\spring-expression-5.3.5.jar;C:\Users\Acer\.m2\practicioner-colombia\org\springframework\boot\spring-boot-starter-test\2.4.4\spring-boot-starter-test-2.4.4.jar;C:\Users\Acer\.m2\practicioner-colombia\org\springframework\boot\spring-boot-test\2.4.4\spring-boot-test-2.4.4.jar;C:\Users\Acer\.m2\practicioner-colombia\org\springframework\boot\spring-boot-test-autoconfigure\2.4.4\spring-boot-test-autoconfigure-2.4.4.jar;C:\Users\Acer\.m2\practicioner-colombia\com\jayway\jsonpath\json-path\2.4.0\json-path-2.4.0.jar;C:\Users\Acer\.m2\practicioner-colombia\net\minidev\json-smart\2.3\json-smart-2.3.jar;C:\Users\Acer\.m2\practicioner-colombia\net\minidev\accessors-smart\1.2\accessors-smart-1.2.jar;C:\Users\Acer\.m2\practicioner-colombia\org\ow2\asm\asm\5.0.4\asm-5.0.4.jar;C:\Users\Acer\.m2\practicioner-colombia\org\slf4j\slf4j-api\1.7.30\slf4j-api-1.7.30.jar;C:\Users\Acer\.m2\practicioner-colombia\jakarta\xml\bind\jakarta.xml.bind-api\2.3.3\jakarta.xml.bind-api-2.3.3.jar;C:\Users\Acer\.m2\practicioner-colombia\jakarta\activation\jakarta.activation-api\1.2.2\jakarta.activation-api-1.2.2.jar;C:\Users\Acer\.m2\practicioner-colombia\org\assertj\assertj-core\3.18.1\assertj-core-3.18.1.jar;C:\Users\Acer\.m2\practicioner-colombia\org\hamcrest\hamcrest\2.2\hamcrest-2.2.jar;C:\Users\Acer\.m2\practicioner-colombia\org\junit\jupiter\junit-jupiter\5.7.1\junit-jupiter-5.7.1.jar;C:\Users\Acer\.m2\practicioner-colombia\org\junit\jupiter\junit-jupiter-api\5.7.1\junit-jupiter-api-5.7.1.jar;C:\Users\Acer\.m2\practicioner-colombia\org\apiguardian\apiguardian-api\1.1.0\apiguardian-api-1.1.0.jar;C:\Users\Acer\.m2\practicioner-colombia\org\opentest4j\opentest4j\1.2.0\opentest4j-1.2.0.jar;C:\Users\Acer\.m2\practicioner-colombia\org\junit\platform\junit-platform-commons\1.7.1\junit-platform-commons-1.7.1.jar;C:\Users\Acer\.m2\practicioner-colombia\org\junit\jupiter\junit-jupiter-params\5.7.1\junit-jupiter-params-5.7.1.jar;C:\Users\Acer\.m2\practicioner-colombia\org\junit\jupiter\junit-jupiter-engine\5.7.1\junit-jupiter-engine-5.7.1.jar;C:\Users\Acer\.m2\practicioner-colombia\org\junit\platform\junit-platform-engine\1.7.1\junit-platform-engine-1.7.1.jar;C:\Users\Acer\.m2\practicioner-colombia\org\mockito\mockito-core\3.6.28\mockito-core-3.6.28.jar;C:\Users\Acer\.m2\practicioner-colombia\net\bytebuddy\byte-buddy\1.10.22\byte-buddy-1.10.22.jar;C:\Users\Acer\.m2\practicioner-colombia\net\bytebuddy\byte-buddy-agent\1.10.22\byte-buddy-agent-1.10.22.jar;C:\Users\Acer\.m2\practicioner-colombia\org\objenesis\objenesis\3.1\objenesis-3.1.jar;C:\Users\Acer\.m2\practicioner-colombia\org\mockito\mockito-junit-jupiter\3.6.28\mockito-junit-jupiter-3.6.28.jar;C:\Users\Acer\.m2\practicioner-colombia\org\skyscreamer\jsonassert\1.5.0\jsonassert-1.5.0.jar;C:\Users\Acer\.m2\practicioner-colombia\com\vaadin\external\google\android-json\0.0.20131108.vaadin1\android-json-0.0.20131108.vaadin1.jar;C:\Users\Acer\.m2\practicioner-colombia\org\springframework\spring-core\5.3.5\spring-core-5.3.5.jar;C:\Users\Acer\.m2\practicioner-colombia\org\springframework\spring-jcl\5.3.5\spring-jcl-5.3.5.jar;C:\Users\Acer\.m2\practicioner-colombia\org\springframework\spring-test\5.3.5\spring-test-5.3.5.jar;C:\Users\Acer\.m2\practicioner-colombia\org\xmlunit\xmlunit-core\2.7.0\xmlunit-core-2.7.0.jar;C:\Users\Acer\.m2\practicioner-colombia\net\bbva\biblioCalculus\1.0-SNAPSHOT\biblioCalculus-1.0-SNAPSHOT.jar;C:\Users\Acer\.m2\practicioner-colombia\org\springframework\boot\spring-boot-starter-data-mongodb\2.4.4\spring-boot-starter-data-mongodb-2.4.4.jar;C:\Users\Acer\.m2\practicioner-colombia\org\mongodb\mongodb-driver-sync\4.1.2\mongodb-driver-sync-4.1.2.jar;C:\Users\Acer\.m2\practicioner-colombia\org\mongodb\bson\4.1.2\bson-4.1.2.jar;C:\Users\Acer\.m2\practicioner-colombia\org\mongodb\mongodb-driver-core\4.1.2\mongodb-driver-core-4.1.2.jar;C:\Users\Acer\.m2\practicioner-colombia\org\springframework\data\spring-data-mongodb\3.1.6\spring-data-mongodb-3.1.6.jar;C:\Users\Acer\.m2\practicioner-colombia\org\springframework\spring-tx\5.3.5\spring-tx-5.3.5.jar;C:\Users\Acer\.m2\practicioner-colombia\org\springframework\data\spring-data-commons\2.4.6\spring-data-commons-2.4.6.jar;"/>
    <property name="sun.cpu.endian" value="little"/>
    <property name="user.home" value="C:\Users\Acer"/>
    <property name="user.language" value="es"/>
    <property name="java.specification.vendor" value="Oracle Corporation"/>
    <property name="java.version.date" value="2021-01-19"/>
    <property name="java.home" value="C:\Program Files\Java\OpenJDK\jdk-15"/>
    <property name="file.separator" value="\"/>
    <property name="basedir" value="C:\PracticionerBackend\demo"/>
    <property name="java.vm.compressedOopsMode" value="32-bit"/>
    <property name="line.separator" value="&#10;"/>
    <property name="java.vm.specification.vendor" value="Oracle Corporation"/>
    <property name="java.specification.name" value="Java Platform API Specification"/>
    <property name="surefire.real.class.path" value="C:\Users\Acer\AppData\Local\Temp\surefire10492231022345466063\surefirebooter1135661214585506870.jar"/>
    <property name="user.script" value=""/>
    <property name="sun.management.compiler" value="HotSpot 64-Bit Tiered Compilers"/>
    <property name="java.runtime.version" value="15.0.2+7-27"/>
    <property name="user.name" value="Acer"/>
    <property name="path.separator" value=";"/>
    <property name="os.version" value="10.0"/>
    <property name="java.runtime.name" value="OpenJDK Runtime Environment"/>
    <property name="file.encoding" value="Cp1252"/>
    <property name="java.vm.name" value="OpenJDK 64-Bit Server VM"/>
    <property name="localRepository" value="C:\Users\Acer\.m2\practicioner-colombia"/>
    <property name="java.vendor.url.bug" value="https://bugreport.java.com/bugreport/"/>
    <property name="java.io.tmpdir" value="C:\Users\Acer\AppData\Local\Temp\"/>
    <property name="idea.version" value="2020.3.3"/>
    <property name="java.version" value="15.0.2"/>
    <property name="user.dir" value="C:\PracticionerBackend\demo"/>
    <property name="os.arch" value="amd64"/>
    <property name="java.vm.specification.name" value="Java Virtual Machine Specification"/>
    <property name="sun.os.patch.level" value=""/>
    <property name="java.library.path" value="C:\Program Files\Java\OpenJDK\jdk-15\bin;C:\WINDOWS\Sun\Java\bin;C:\WINDOWS\system32;C:\WINDOWS;C:\Program Files (x86)\Intel\Intel(R) Management Engine Components\iCLS\;C:\Program Files\Intel\Intel(R) Management Engine Components\iCLS\;C:\Windows\system32;C:\Windows;C:\Windows\System32\Wbem;C:\Windows\System32\WindowsPowerShell\v1.0\;C:\Program Files (x86)\Intel\Intel(R) Management Engine Components\DAL;C:\Program Files\Intel\Intel(R) Management Engine Components\DAL;C:\Program Files (x86)\Intel\Intel(R) Management Engine Components\IPT;C:\Program Files\Intel\Intel(R) Management Engine Components\IPT;C:\Program Files (x86)\NVIDIA Corporation\PhysX\Common;C:\WINDOWS\system32;C:\WINDOWS;C:\WINDOWS\System32\Wbem;C:\WINDOWS\System32\WindowsPowerShell\v1.0\;C:\WINDOWS\System32\OpenSSH\;C:\Program Files\Amazon\AWSCLI\;C:\Program Files\Git\cmd;C:\Program Files\dotnet\;C:\Program Files\Microsoft SQL Server\130\Tools\Binn\;C:\Program Files\Microsoft SQL Server\Client SDK\ODBC\170\Tools\Binn\;C:\Program Files\nodejs\;C:\Program Files\PuTTY\;C:\Program Files\NVIDIA Corporation\NVIDIA NvDLISR;C:\Users\Acer\AppData\Local\Microsoft\WindowsApps;C:\Users\Acer\.dotnet\tools;C:\Users\Acer\AppData\Roaming\npm;C:\Program Files\Java\OpenJDK\jdk-15\bin;C:\Program Files\Apache Software Foundation\apache-maven-3.8.1\bin;;."/>
    <property name="java.vm.info" value="mixed mode, sharing"/>
    <property name="java.vendor" value="Oracle Corporation"/>
    <property name="java.vm.version" value="15.0.2+7-27"/>
    <property name="sun.io.unicode.encoding" value="UnicodeLittle"/>
    <property name="maven.repo.local" value="C:\Users\Acer\.m2\practicioner-colombia"/>
    <property name="java.class.version" value="59.0"/>
  </properties>
  <testcase name="firstTest" classname="com.example.demo.saludoControllerTest" time="0.001"/>
  <testcase name="getSaludo" classname="com.example.demo.saludoControllerTest" time="0.14">
    <error message="Cannot invoke &quot;org.springframework.test.web.servlet.MockMvc.perform(org.springframework.test.web.servlet.RequestBuilder)&quot; because &quot;this.mockMvc&quot; is null" type="java.lang.NullPointerException">java.lang.NullPointerException: Cannot invoke "org.springframework.test.web.servlet.MockMvc.perform(org.springframework.test.web.servlet.RequestBuilder)" because "this.mockMvc" is null
	at com.example.demo.saludoControllerTest.getSaludo(saludoControllerTest.java:26)
</error>
  </testcase>
</testsuite>